{
	"orderID": "OP_0001",
	"productID": "CCHP001",
	"quantity": 10,
	"price": 100,
	"subTotal": 1000
}

{
	"orderID": "OP_0002",
	"productID": "RVC001",
	"quantity": 5,
	"price": 110,
	"subTotal": 550
}